<svg width="80" height="80" viewBox="0 0 80 80" fill="none" xmlns="http://www.w3.org/2000/svg">
<g clip-path="url(#clip0)">
<path d="M33.7592 79.5806L64.6167 26.4487C65.3153 25.2457 64.3245 23.7654 62.9461 23.9529L42.4205 26.7428L47.3247 0.995584C47.49 0.127615 46.3709 -0.369729 45.8375 0.33449L15.4978 40.3829C14.614 41.5493 15.5498 43.2079 17.0051 43.0548L39.6345 40.6728L32.2159 79.0021C32.037 79.9267 33.2862 80.395 33.7592 79.5806Z" fill="#FFDC64"/>
<path d="M24.9856 37.5461C24.4189 37.5914 24.0425 36.9719 24.3437 36.4898L47.028 0.195144C46.6905 -0.0718877 46.1592 -0.0890752 45.8375 0.335612L15.4978 40.3841C14.614 41.5506 15.5498 43.209 17.0051 43.0559L39.6345 40.6739L32.2159 79.0033C32.1159 79.5203 32.4647 79.8841 32.8723 79.9711L45.5847 39.745C46.1806 37.8595 44.6772 35.9706 42.7061 36.1284L24.9856 37.5461Z" fill="#FFC850"/>
</g>
<defs>
<clipPath id="clip0">
<rect width="80" height="80" fill="white"/>
</clipPath>
</defs>
</svg>
