<svg width="85" height="85" viewBox="0 0 85 85" fill="none" xmlns="http://www.w3.org/2000/svg">
<path fill-rule="evenodd" clip-rule="evenodd" d="M63.6396 63.6396C75.3553 51.9239 75.3553 32.9289 63.6396 21.2132C51.9239 9.49746 32.9289 9.49746 21.2132 21.2132C9.49747 32.9289 9.49747 51.9239 21.2132 63.6396C32.9289 75.3553 51.9239 75.3553 63.6396 63.6396ZM27.8865 54.403C27.496 54.0125 27.496 53.3793 27.8865 52.9888L38.4489 42.4264L27.8865 31.864C27.496 31.4735 27.496 30.8403 27.8865 30.4498L30.4498 27.8865C30.8403 27.496 31.4735 27.496 31.864 27.8865L42.4264 38.4489L52.9888 27.8865C53.3793 27.496 54.0125 27.496 54.403 27.8865L56.9663 30.4498C57.3568 30.8403 57.3568 31.4735 56.9663 31.864L46.4039 42.4264L56.9663 52.9888C57.3568 53.3793 57.3568 54.0125 56.9663 54.403L54.403 56.9663C54.0125 57.3568 53.3793 57.3568 52.9888 56.9663L42.4264 46.4039L31.864 56.9663C31.4735 57.3568 30.8403 57.3568 30.4498 56.9663L27.8865 54.403Z" fill="#FF2D55"/>
</svg>
