<svg width="24" height="24" viewBox="0 0 24 24" fill="none" xmlns="http://www.w3.org/2000/svg">
<path d="M3 5.6V16.8C3 18.5672 4.4328 20 6.2 20H19C19.8832 20 20.6 19.2832 20.6 18.4V8.8C20.6 7.9168 19.8832 7.2 19 7.2H4.6C3.7168 7.2 3 6.4832 3 5.6C3 4.7168 3.7168 4 4.6 4H19" stroke="black" stroke-width="1.5" stroke-linecap="round" stroke-linejoin="round"/>
<path fill-rule="evenodd" clip-rule="evenodd" d="M14.2002 13.6C14.2002 14.4832 14.917 15.2 15.8002 15.2C16.6834 15.2 17.4002 14.4832 17.4002 13.6C17.4002 12.7168 16.6834 12 15.8002 12C14.917 12 14.2002 12.7168 14.2002 13.6Z" stroke="black" stroke-width="1.5" stroke-linecap="round" stroke-linejoin="round"/>
</svg>
