<svg width="8" height="13" viewBox="0 0 8 13" fill="none" xmlns="http://www.w3.org/2000/svg">
<path fill-rule="evenodd" clip-rule="evenodd" d="M0.726563 11.3498L5.12336 6.75977L0.726563 2.16977L2.08016 0.759766L7.84016 6.75977L2.08016 12.7598L0.726563 11.3498Z" fill="#FAFCFF"/>
</svg>
