<svg width="22" height="22" viewBox="0 0 22 22" fill="none" xmlns="http://www.w3.org/2000/svg">
<path fill-rule="evenodd" clip-rule="evenodd" d="M17 9C17 13.418 13.418 17 9 17C4.582 17 1 13.418 1 9C1 4.582 4.582 1 9 1C13.418 1 17 4.582 17 9Z" stroke="#007DFF" stroke-width="2" stroke-linecap="round" stroke-linejoin="round"/>
<path d="M21 21L15 15" stroke="#007DFF" stroke-width="2" stroke-linecap="round" stroke-linejoin="round"/>
</svg>
