<svg width="40" height="40" viewBox="0 0 40 40" fill="none" xmlns="http://www.w3.org/2000/svg">
<path d="M16.6667 6.66699C14.8251 6.66699 13.3334 8.15866 13.3334 10.0003V11.667H36.6667V10.0003C36.6667 8.15866 35.1751 6.66699 33.3334 6.66699H16.6667ZM10.0001 13.3337L3.09904 18.1286C2.20237 18.7502 1.66675 19.7713 1.66675 20.863V31.667C1.66675 33.5087 3.15841 35.0003 5.00008 35.0003H14.3035C16.1701 35.0003 17.9136 34.0667 18.9486 32.5133L24.5509 26.208C25.1875 25.328 25.1655 24.1333 24.4955 23.2783L23.2813 21.7191L14.3393 27.2952C12.4476 28.4736 10.0001 27.1131 10.0001 24.8864V13.3337ZM13.3334 15.0003V21.667C13.3334 22.3903 13.57 23.0539 13.9617 23.6006L21.517 18.8936L24.0626 17.305L25.9083 19.6683L27.1257 21.2243C27.9824 22.321 28.3704 23.6637 28.3204 24.9971H33.3334C35.1751 24.9971 36.6667 23.5054 36.6667 21.6637V15.0003H13.3334Z" fill="white"/>
</svg>
