<svg width="20" height="17" viewBox="0 0 20 17" fill="none" xmlns="http://www.w3.org/2000/svg">
<path d="M1 0.5C0.723858 0.5 0.5 0.723858 0.5 1C0.5 1.27614 0.723858 1.5 1 1.5H19C19.2761 1.5 19.5 1.27614 19.5 1C19.5 0.723858 19.2761 0.5 19 0.5H1Z" stroke="#1C306D" stroke-linecap="round" stroke-linejoin="round"/>
<path d="M1 7.9668C0.723858 7.9668 0.5 8.19065 0.5 8.4668C0.5 8.74294 0.723858 8.9668 1 8.9668H19C19.2761 8.9668 19.5 8.74294 19.5 8.4668C19.5 8.19065 19.2761 7.9668 19 7.9668H1Z" stroke="#1C306D" stroke-linecap="round" stroke-linejoin="round"/>
<path d="M1 15.4336C0.723858 15.4336 0.5 15.6575 0.5 15.9336C0.5 16.2097 0.723858 16.4336 1 16.4336H19C19.2761 16.4336 19.5 16.2097 19.5 15.9336C19.5 15.6575 19.2761 15.4336 19 15.4336H1Z" stroke="#1C306D" stroke-linecap="round" stroke-linejoin="round"/>
<path d="M1 0.5C0.723858 0.5 0.5 0.723858 0.5 1C0.5 1.27614 0.723858 1.5 1 1.5H19C19.2761 1.5 19.5 1.27614 19.5 1C19.5 0.723858 19.2761 0.5 19 0.5H1Z" stroke="#1C306D" stroke-linecap="round" stroke-linejoin="round"/>
<path d="M1 7.9668C0.723858 7.9668 0.5 8.19065 0.5 8.4668C0.5 8.74294 0.723858 8.9668 1 8.9668H19C19.2761 8.9668 19.5 8.74294 19.5 8.4668C19.5 8.19065 19.2761 7.9668 19 7.9668H1Z" stroke="#1C306D" stroke-linecap="round" stroke-linejoin="round"/>
<path d="M1 15.4336C0.723858 15.4336 0.5 15.6575 0.5 15.9336C0.5 16.2097 0.723858 16.4336 1 16.4336H19C19.2761 16.4336 19.5 16.2097 19.5 15.9336C19.5 15.6575 19.2761 15.4336 19 15.4336H1Z" stroke="#1C306D" stroke-linecap="round" stroke-linejoin="round"/>
</svg>
