<svg width="77" height="75" viewBox="0 0 77 75" fill="none" xmlns="http://www.w3.org/2000/svg">
<path fill-rule="evenodd" clip-rule="evenodd" d="M16.885 58.3333C15.6617 58.3333 14.6664 57.338 14.6664 56.1147V21.2187C14.6664 19.9953 15.6617 19 16.885 19H67.1151C68.3384 19 69.3331 19.9953 69.3331 21.2187V56.1147C69.3331 57.338 68.3384 58.3333 67.1151 58.3333H16.885Z" fill="white"/>
<path fill-rule="evenodd" clip-rule="evenodd" d="M67.1148 16.3333H16.8848C14.1868 16.3333 12.0001 18.5206 12.0001 21.2186V56.1146C12.0001 58.8126 14.1868 60.9999 16.8848 60.9999H67.1148C69.8128 60.9999 72.0001 58.8126 72.0001 56.1146V21.2186C72.0001 18.5206 69.8128 16.3333 67.1148 16.3333ZM17.3335 55.6666H66.6668V21.6666H17.3335V55.6666Z" fill="#FF8C00"/>
<path fill-rule="evenodd" clip-rule="evenodd" d="M54.369 42.3333H28.2977C27.3964 42.3333 26.6664 41.6033 26.6664 40.7027V36.6307C26.6664 35.73 27.3964 35 28.2977 35H54.369C55.2697 35 55.9997 35.73 55.9997 36.6307V40.7027C55.9997 41.6033 55.2697 42.3333 54.369 42.3333Z" fill="#F9B869"/>
<path d="M33.6666 38.6665H49" stroke="white" stroke-width="3" stroke-linecap="round"/>
<path fill-rule="evenodd" clip-rule="evenodd" d="M28.2704 43.6665H54.3964C55.2817 43.6665 55.9997 44.3845 55.9997 45.2705V48.3918C55.9997 49.0492 55.6011 49.6352 54.9917 49.8812C53.2957 50.5658 49.2537 51.7258 41.3331 51.7258C33.4131 51.7258 29.371 50.5658 27.675 49.8812C27.0657 49.6352 26.6664 49.0492 26.6664 48.3918V45.2705C26.6664 44.3845 27.3844 43.6665 28.2704 43.6665Z" fill="#F9B869"/>
<path d="M33.6666 47.3333H49" stroke="white" stroke-width="3" stroke-linecap="round"/>
<path fill-rule="evenodd" clip-rule="evenodd" d="M55.118 33.6665H28.3813C27.438 33.6665 26.6666 32.8952 26.6666 31.9518V29.0812C26.6666 28.4265 27.1266 27.8385 27.7433 27.5938C29.4693 26.9098 33.624 25.7458 41.7226 25.7458C49.8013 25.7458 53.914 26.9038 55.6473 27.5885C56.264 27.8325 56.6666 28.4252 56.6666 29.0878V32.1178C56.6666 32.9732 55.9733 33.6665 55.118 33.6665Z" fill="#FF8C00"/>
<path d="M33.6666 30H49" stroke="white" stroke-width="3" stroke-linecap="round"/>
<path fill-rule="evenodd" clip-rule="evenodd" d="M70 0.999919C68.8973 0.999919 68 1.89725 68 2.99992C68 4.10259 68.8973 4.99992 70 4.99992C71.1027 4.99992 72 4.10259 72 2.99992C72 1.89725 71.1027 0.999919 70 0.999919ZM70 5.66658C68.5293 5.66658 67.3333 4.47058 67.3333 2.99992C67.3333 1.52925 68.5293 0.333252 70 0.333252C71.4707 0.333252 72.6667 1.52925 72.6667 2.99992C72.6667 4.47058 71.4707 5.66658 70 5.66658ZM76.3333 68.9999H71.6667C71.4827 68.9999 71.3333 68.8506 71.3333 68.6666C71.3333 68.4826 71.4827 68.3332 71.6667 68.3332H76.3333C76.5173 68.3332 76.6667 68.4826 76.6667 68.6666C76.6667 68.8506 76.5173 68.9999 76.3333 68.9999ZM28.3333 74.3332C28.1493 74.3332 28 74.1839 28 73.9999V68.6666C28 68.4826 28.1493 68.3332 28.3333 68.3332C28.5173 68.3332 28.6667 68.4826 28.6667 68.6666V73.9999C28.6667 74.1839 28.5173 74.3332 28.3333 74.3332Z" fill="#E4E5EB"/>
<path fill-rule="evenodd" clip-rule="evenodd" d="M30.9999 71.6667H25.6666C25.4826 71.6667 25.3333 71.5173 25.3333 71.3333C25.3333 71.1493 25.4826 71 25.6666 71H30.9999C31.1839 71 31.3333 71.1493 31.3333 71.3333C31.3333 71.5173 31.1839 71.6667 30.9999 71.6667ZM3.66659 15C3.48259 15 3.33325 14.8507 3.33325 14.6667V9.33333C3.33325 9.14933 3.48259 9 3.66659 9C3.85059 9 3.99992 9.14933 3.99992 9.33333V14.6667C3.99992 14.8507 3.85059 15 3.66659 15Z" fill="#E4E5EB"/>
<path fill-rule="evenodd" clip-rule="evenodd" d="M6.33329 12.3332H0.999959C0.815959 12.3332 0.666626 12.1838 0.666626 11.9998C0.666626 11.8158 0.815959 11.6665 0.999959 11.6665H6.33329C6.51729 11.6665 6.66663 11.8158 6.66663 11.9998C6.66663 12.1838 6.51729 12.3332 6.33329 12.3332Z" fill="#E4E5EB"/>
</svg>
